^D:\DEVOIRS\ENSISA\CHICOUTIMI\INTELLIGENCE ARTIFICIELLE POUR LES JEUX VIDÉOS\8IAR125-TP2\BUCKLAND_CHAPTER3-STEERING BEHAVIORS\DEBUG\CGDI.OBJ|D:\DEVOIRS\ENSISA\CHICOUTIMI\INTELLIGENCE ARTIFICIELLE POUR LES JEUX VIDÉOS\8IAR125-TP2\BUCKLAND_CHAPTER3-STEERING BEHAVIORS\DEBUG\FOLLOWINGAGENT.OBJ|D:\DEVOIRS\ENSISA\CHICOUTIMI\INTELLIGENCE ARTIFICIELLE POUR LES JEUX VIDÉOS\8IAR125-TP2\BUCKLAND_CHAPTER3-STEERING BEHAVIORS\DEBUG\GAMEWORLD.OBJ|D:\DEVOIRS\ENSISA\CHICOUTIMI\INTELLIGENCE ARTIFICIELLE POUR LES JEUX VIDÉOS\8IAR125-TP2\BUCKLAND_CHAPTER3-STEERING BEHAVIORS\DEBUG\INIFILELOADERBASE.OBJ|D:\DEVOIRS\ENSISA\CHICOUTIMI\INTELLIGENCE ARTIFICIELLE POUR LES JEUX VIDÉOS\8IAR125-TP2\BUCKLAND_CHAPTER3-STEERING BEHAVIORS\DEBUG\LEADERAGENT.OBJ|D:\DEVOIRS\ENSISA\CHICOUTIMI\INTELLIGENCE ARTIFICIELLE POUR LES JEUX VIDÉOS\8IAR125-TP2\BUCKLAND_CHAPTER3-STEERING BEHAVIORS\DEBUG\MAIN.OBJ|D:\DEVOIRS\ENSISA\CHICOUTIMI\INTELLIGENCE ARTIFICIELLE POUR LES JEUX VIDÉOS\8IAR125-TP2\BUCKLAND_CHAPTER3-STEERING BEHAVIORS\DEBUG\OBSTACLE.OBJ|D:\DEVOIRS\ENSISA\CHICOUTIMI\INTELLIGENCE ARTIFICIELLE POUR LES JEUX VIDÉOS\8IAR125-TP2\BUCKLAND_CHAPTER3-STEERING BEHAVIORS\DEBUG\PARAMLOADER.OBJ|D:\DEVOIRS\ENSISA\CHICOUTIMI\INTELLIGENCE ARTIFICIELLE POUR LES JEUX VIDÉOS\8IAR125-TP2\BUCKLAND_CHAPTER3-STEERING BEHAVIORS\DEBUG\PATH.OBJ|D:\DEVOIRS\ENSISA\CHICOUTIMI\INTELLIGENCE ARTIFICIELLE POUR LES JEUX VIDÉOS\8IAR125-TP2\BUCKLAND_CHAPTER3-STEERING BEHAVIORS\DEBUG\PRECISIONTIMER.OBJ|D:\DEVOIRS\ENSISA\CHICOUTIMI\INTELLIGENCE ARTIFICIELLE POUR LES JEUX VIDÉOS\8IAR125-TP2\BUCKLAND_CHAPTER3-STEERING BEHAVIORS\DEBUG\SCRIPT1.RES|D:\DEVOIRS\ENSISA\CHICOUTIMI\INTELLIGENCE ARTIFICIELLE POUR LES JEUX VIDÉOS\8IAR125-TP2\BUCKLAND_CHAPTER3-STEERING BEHAVIORS\DEBUG\STEERINGBEHAVIORS.OBJ|D:\DEVOIRS\ENSISA\CHICOUTIMI\INTELLIGENCE ARTIFICIELLE POUR LES JEUX VIDÉOS\8IAR125-TP2\BUCKLAND_CHAPTER3-STEERING BEHAVIORS\DEBUG\VECTOR2D.OBJ|D:\DEVOIRS\ENSISA\CHICOUTIMI\INTELLIGENCE ARTIFICIELLE POUR LES JEUX VIDÉOS\8IAR125-TP2\BUCKLAND_CHAPTER3-STEERING BEHAVIORS\DEBUG\VEHICLE.OBJ|D:\DEVOIRS\ENSISA\CHICOUTIMI\INTELLIGENCE ARTIFICIELLE POUR LES JEUX VIDÉOS\8IAR125-TP2\BUCKLAND_CHAPTER3-STEERING BEHAVIORS\DEBUG\WINDOWUTILS.OBJ
C:\PROGRAM FILES (X86)\WINDOWS KITS\10\LIB\10.0.18362.0\UM\X86\ODBC32.LIB
C:\PROGRAM FILES (X86)\WINDOWS KITS\10\LIB\10.0.18362.0\UM\X86\ODBCCP32.LIB
C:\PROGRAM FILES (X86)\WINDOWS KITS\10\LIB\10.0.18362.0\UM\X86\KERNEL32.LIB
C:\PROGRAM FILES (X86)\WINDOWS KITS\10\LIB\10.0.18362.0\UM\X86\USER32.LIB
C:\PROGRAM FILES (X86)\WINDOWS KITS\10\LIB\10.0.18362.0\UM\X86\GDI32.LIB
C:\PROGRAM FILES (X86)\WINDOWS KITS\10\LIB\10.0.18362.0\UM\X86\WINSPOOL.LIB
C:\PROGRAM FILES (X86)\WINDOWS KITS\10\LIB\10.0.18362.0\UM\X86\COMDLG32.LIB
C:\PROGRAM FILES (X86)\WINDOWS KITS\10\LIB\10.0.18362.0\UM\X86\ADVAPI32.LIB
C:\PROGRAM FILES (X86)\WINDOWS KITS\10\LIB\10.0.18362.0\UM\X86\SHELL32.LIB
C:\PROGRAM FILES (X86)\WINDOWS KITS\10\LIB\10.0.18362.0\UM\X86\OLE32.LIB
C:\PROGRAM FILES (X86)\WINDOWS KITS\10\LIB\10.0.18362.0\UM\X86\OLEAUT32.LIB
C:\PROGRAM FILES (X86)\WINDOWS KITS\10\LIB\10.0.18362.0\UM\X86\UUID.LIB
D:\DEVOIRS\ENSISA\CHICOUTIMI\INTELLIGENCE ARTIFICIELLE POUR LES JEUX VIDéOS\8IAR125-TP2\BUCKLAND_CHAPTER3-STEERING BEHAVIORS\DEBUG\SCRIPT1.RES
D:\DEVOIRS\ENSISA\CHICOUTIMI\INTELLIGENCE ARTIFICIELLE POUR LES JEUX VIDéOS\8IAR125-TP2\BUCKLAND_CHAPTER3-STEERING BEHAVIORS\DEBUG\VECTOR2D.OBJ
D:\DEVOIRS\ENSISA\CHICOUTIMI\INTELLIGENCE ARTIFICIELLE POUR LES JEUX VIDéOS\8IAR125-TP2\BUCKLAND_CHAPTER3-STEERING BEHAVIORS\DEBUG\CGDI.OBJ
D:\DEVOIRS\ENSISA\CHICOUTIMI\INTELLIGENCE ARTIFICIELLE POUR LES JEUX VIDéOS\8IAR125-TP2\BUCKLAND_CHAPTER3-STEERING BEHAVIORS\DEBUG\INIFILELOADERBASE.OBJ
D:\DEVOIRS\ENSISA\CHICOUTIMI\INTELLIGENCE ARTIFICIELLE POUR LES JEUX VIDéOS\8IAR125-TP2\BUCKLAND_CHAPTER3-STEERING BEHAVIORS\DEBUG\WINDOWUTILS.OBJ
D:\DEVOIRS\ENSISA\CHICOUTIMI\INTELLIGENCE ARTIFICIELLE POUR LES JEUX VIDéOS\8IAR125-TP2\BUCKLAND_CHAPTER3-STEERING BEHAVIORS\DEBUG\PRECISIONTIMER.OBJ
D:\DEVOIRS\ENSISA\CHICOUTIMI\INTELLIGENCE ARTIFICIELLE POUR LES JEUX VIDéOS\8IAR125-TP2\BUCKLAND_CHAPTER3-STEERING BEHAVIORS\DEBUG\FOLLOWINGAGENT.OBJ
D:\DEVOIRS\ENSISA\CHICOUTIMI\INTELLIGENCE ARTIFICIELLE POUR LES JEUX VIDéOS\8IAR125-TP2\BUCKLAND_CHAPTER3-STEERING BEHAVIORS\DEBUG\GAMEWORLD.OBJ
D:\DEVOIRS\ENSISA\CHICOUTIMI\INTELLIGENCE ARTIFICIELLE POUR LES JEUX VIDéOS\8IAR125-TP2\BUCKLAND_CHAPTER3-STEERING BEHAVIORS\DEBUG\LEADERAGENT.OBJ
D:\DEVOIRS\ENSISA\CHICOUTIMI\INTELLIGENCE ARTIFICIELLE POUR LES JEUX VIDéOS\8IAR125-TP2\BUCKLAND_CHAPTER3-STEERING BEHAVIORS\DEBUG\MAIN.OBJ
D:\DEVOIRS\ENSISA\CHICOUTIMI\INTELLIGENCE ARTIFICIELLE POUR LES JEUX VIDéOS\8IAR125-TP2\BUCKLAND_CHAPTER3-STEERING BEHAVIORS\DEBUG\OBSTACLE.OBJ
D:\DEVOIRS\ENSISA\CHICOUTIMI\INTELLIGENCE ARTIFICIELLE POUR LES JEUX VIDéOS\8IAR125-TP2\BUCKLAND_CHAPTER3-STEERING BEHAVIORS\DEBUG\PARAMLOADER.OBJ
D:\DEVOIRS\ENSISA\CHICOUTIMI\INTELLIGENCE ARTIFICIELLE POUR LES JEUX VIDéOS\8IAR125-TP2\BUCKLAND_CHAPTER3-STEERING BEHAVIORS\DEBUG\PATH.OBJ
D:\DEVOIRS\ENSISA\CHICOUTIMI\INTELLIGENCE ARTIFICIELLE POUR LES JEUX VIDéOS\8IAR125-TP2\BUCKLAND_CHAPTER3-STEERING BEHAVIORS\DEBUG\STEERINGBEHAVIORS.OBJ
D:\DEVOIRS\ENSISA\CHICOUTIMI\INTELLIGENCE ARTIFICIELLE POUR LES JEUX VIDéOS\8IAR125-TP2\BUCKLAND_CHAPTER3-STEERING BEHAVIORS\DEBUG\VEHICLE.OBJ
C:\WINDOWS\GLOBALIZATION\SORTING\SORTDEFAULT.NLS
C:\PROGRAM FILES (X86)\MICROSOFT VISUAL STUDIO\2019\COMMUNITY\VC\TOOLS\MSVC\14.28.29333\BIN\HOSTX86\X86\1036\LINKUI.DLL
C:\PROGRAM FILES (X86)\MICROSOFT VISUAL STUDIO\2019\COMMUNITY\VC\TOOLS\MSVC\14.28.29333\LIB\X86\LIBCPMTD.LIB
C:\PROGRAM FILES (X86)\MICROSOFT VISUAL STUDIO\2019\COMMUNITY\VC\TOOLS\MSVC\14.28.29333\LIB\X86\LIBCMTD.LIB
C:\PROGRAM FILES (X86)\MICROSOFT VISUAL STUDIO\2019\COMMUNITY\VC\TOOLS\MSVC\14.28.29333\LIB\X86\OLDNAMES.LIB
C:\PROGRAM FILES (X86)\MICROSOFT VISUAL STUDIO\2019\COMMUNITY\VC\TOOLS\MSVC\14.28.29333\LIB\X86\LIBVCRUNTIMED.LIB
C:\PROGRAM FILES (X86)\WINDOWS KITS\10\LIB\10.0.18362.0\UCRT\X86\LIBUCRTD.LIB
C:\PROGRAM FILES (X86)\MICROSOFT VISUAL STUDIO\2019\COMMUNITY\VC\TOOLS\MSVC\14.28.29333\BIN\HOSTX86\X86\CVTRES.EXE
C:\WINDOWS\SYSTEM32\TZRES.DLL
